<?xml version="1.0" encoding="UTF-8" standalone="no"?>
<svg
   xmlns:dc="http://purl.org/dc/elements/1.1/"
   xmlns:cc="http://creativecommons.org/ns#"
   xmlns:rdf="http://www.w3.org/1999/02/22-rdf-syntax-ns#"
   xmlns:svg="http://www.w3.org/2000/svg"
   xmlns="http://www.w3.org/2000/svg"
   id="svg11844"
   version="1.1"
   viewBox="0 0 5.0484642 15.802656"
   height="15.802655mm"
   width="5.0484643mm">
  <defs
     id="defs11838">
    <clipPath
       id="clipPath2671"
       clipPathUnits="userSpaceOnUse">
      <path
         id="path2669"
         d="M 177.165,147.402 H 678.898 V 452.226 H 177.165 Z" />
    </clipPath>
    <clipPath
       id="clipPath2537"
       clipPathUnits="userSpaceOnUse">
      <path
         id="path2535"
         d="M 177.165,147.402 H 678.898 V 452.226 H 177.165 Z" />
    </clipPath>
    <clipPath
       id="clipPath2451"
       clipPathUnits="userSpaceOnUse">
      <path
         id="path2449"
         d="m 368.506,452.226 1.009,-44.768 81.388,0.348 -0.191,44.42 z" />
    </clipPath>
    <clipPath
       id="clipPath2371"
       clipPathUnits="userSpaceOnUse">
      <path
         id="path2369"
         d="m 368.506,452.226 1.009,-44.768 81.388,0.348 -0.191,44.42 z" />
    </clipPath>
    <clipPath
       id="clipPath2291"
       clipPathUnits="userSpaceOnUse">
      <path
         id="path2289"
         d="M 177.165,147.402 H 678.898 V 452.226 H 177.165 Z" />
    </clipPath>
    <clipPath
       id="clipPath2247"
       clipPathUnits="userSpaceOnUse">
      <path
         id="path2245"
         d="M 177.165,147.402 H 678.898 V 452.226 H 177.165 Z" />
    </clipPath>
  </defs>
  <metadata
     id="metadata11841">
    <rdf:RDF>
      <cc:Work
         rdf:about="">
        <dc:format>image/svg+xml</dc:format>
        <dc:type
           rdf:resource="http://purl.org/dc/dcmitype/StillImage" />
        <dc:title></dc:title>
      </cc:Work>
    </rdf:RDF>
  </metadata>
  <g
     transform="translate(-204.87452,-283.11641)"
     id="layer1">
    <g
       transform="matrix(0.0921875,0,0,0.0903237,196.57974,283.11649)"
       id="g2217">
      <g
         transform="translate(89.9773,-9e-4)"
         id="g2219">
        <path
           id="path2221"
           style="fill:#fab42c;fill-opacity:1;fill-rule:nonzero;stroke:none"
           d="M 0,0 H 54.656 L 54.763,24.572 0.108,24.81 Z" />
      </g>
    </g>
    <g
       transform="matrix(0.0921875,0,0,0.0903237,196.57974,283.11649)"
       id="g2223">
      <g
         transform="translate(117.9873,25.8264)"
         id="g2225">
        <path
           id="path2227"
           style="fill:#fab42c;fill-opacity:1;fill-rule:nonzero;stroke:none"
           d="M 0,0 15.941,-0.069 16.188,56.579 0.247,56.648 Z" />
      </g>
    </g>
    <g
       transform="matrix(0.0921875,0,0,0.0903237,196.57974,283.11649)"
       id="g2229">
      <g
         transform="translate(100.9071,25.9011)"
         id="g2231">
        <path
           id="path2233"
           style="fill:#fab42c;fill-opacity:1;fill-rule:nonzero;stroke:none"
           d="m 0,0 15.942,-0.069 0.246,56.647 -15.941,0.07 z" />
      </g>
    </g>
    <g
       transform="matrix(0.0921875,0,0,0.0903237,196.57974,283.11649)"
       id="g2235">
      <g
         transform="translate(96.4575,82.5696)"
         id="g2237">
        <path
           id="path2239"
           style="fill:#ef3043;fill-opacity:1;fill-rule:nonzero;stroke:none"
           d="M 0,0 42.557,-0.186 42.622,14.759 0.065,14.945 Z" />
      </g>
    </g>
    <g
       id="g2241"
       transform="matrix(0.35277777,0,0,-0.35277777,134.07973,442.65163)">
      <g
         clip-path="url(#clipPath2247)"
         id="g2243">
        <g
           transform="matrix(0.2613189,0,0,-0.2560357,177.16537,452.22559)"
           id="g2249">
          <g
             transform="translate(114.144,152.3109)"
             id="g2251">
            <path
               id="path2253"
               style="fill:#d3d2d2;fill-opacity:1;fill-rule:nonzero;stroke:none"
               d="M 0,0 8.336,-0.036 C 9.058,-0.04 9.636,-0.648 9.633,-1.4 l -0.038,-8.681 c -0.003,-0.752 -0.587,-1.355 -1.309,-1.352 l -8.336,0.036 c -0.722,0.004 -1.3,0.612 -1.297,1.363 l 0.038,8.682 C -1.306,-0.6 -0.722,0.003 0,0" />
          </g>
        </g>
        <g
           transform="matrix(0.2613189,0,0,-0.2560357,177.16537,452.22559)"
           id="g2255">
          <g
             transform="translate(125.4674,152.2614)"
             id="g2257">
            <path
               id="path2259"
               style="fill:#918f90;fill-opacity:1;fill-rule:nonzero;stroke:none"
               d="M 0,0 3.05,-0.013 C 3.772,-0.016 4.351,-0.624 4.347,-1.377 L 4.31,-10.058 C 4.306,-10.81 3.722,-11.413 3,-11.41 l -3.05,0.013 c -0.722,0.004 -1.3,0.612 -1.297,1.363 l 0.038,8.682 C -1.306,-0.6 -0.722,0.003 0,0" />
          </g>
        </g>
        <g
           transform="matrix(0.2613189,0,0,-0.2560357,177.16537,452.22559)"
           id="g2261">
          <g
             transform="translate(108.1378,152.337)"
             id="g2263">
            <path
               id="path2265"
               style="fill:#918f90;fill-opacity:1;fill-rule:nonzero;stroke:none"
               d="m 0,0 3.05,-0.013 c 0.722,-0.003 1.3,-0.611 1.297,-1.364 L 4.309,-10.058 C 4.306,-10.81 3.722,-11.413 3,-11.41 l -3.05,0.013 c -0.722,0.004 -1.3,0.612 -1.297,1.363 l 0.038,8.682 C -1.306,-0.6 -0.722,0.003 0,0" />
          </g>
        </g>
      </g>
    </g>
    <g
       transform="matrix(0.0921875,0,0,0.0903237,196.57974,283.11649)"
       id="g2267">
      <g
         transform="translate(116.0676,172.9449)"
         id="g2269">
        <path
           id="path2271"
           style="fill:#918f90;fill-opacity:1;fill-rule:nonzero;stroke:none"
           d="M 0,0 2.028,2.001 0.009,2.01 Z M -0.008,-1.91 -0.017,-3.992 4.897,0.859 4.902,1.988 3.945,1.993 Z m -0.017,-3.991 -0.01,-2.083 4.915,4.851 0.009,2.083 z m -0.018,-3.993 -0.009,-2.081 4.915,4.85 0.009,2.082 z m -0.017,-3.991 -0.009,-2.083 4.914,4.85 0.009,2.084 z m -0.018,-3.993 -0.009,-2.244 4.893,-0.021 0.031,7.117 z" />
      </g>
    </g>
    <g
       transform="matrix(0.0921875,0,0,0.0903237,196.57974,283.11649)"
       id="g2273">
      <g
         transform="translate(108.2664,137.8782)"
         id="g2275">
        <path
           id="path2277"
           style="fill:#d3d2d2;fill-opacity:1;fill-rule:nonzero;stroke:none"
           d="M 0,0 20.079,-0.088 20.091,2.544 0.011,2.633 Z" />
      </g>
    </g>
    <g
       transform="matrix(0.0921875,0,0,0.0903237,196.57974,283.11649)"
       id="g2279">
      <g
         transform="translate(112.3299,130.6386)"
         id="g2281">
        <path
           id="path2283"
           style="fill:#918f90;fill-opacity:1;fill-rule:nonzero;stroke:none"
           d="M 0,0 11.237,-0.049 11.268,6.863 0.03,6.911 Z" />
      </g>
    </g>
    <g
       id="g2285"
       transform="matrix(0.35277777,0,0,-0.35277777,134.07973,442.65163)">
      <g
         clip-path="url(#clipPath2291)"
         id="g2287">
        <g
           transform="matrix(0.2613189,0,0,-0.2560357,177.16537,452.22559)"
           id="g2293">
          <g
             transform="translate(134.3519,92.0994)"
             id="g2295">
            <path
               id="path2297"
               style="fill:#918f90;fill-opacity:1;fill-rule:nonzero;stroke:none"
               d="m 0,0 c -12.19,0.179 -23.377,7.896 -37.966,3.733 l 0.122,27.967 c 0.006,1.438 -0.547,2.598 -1.24,2.601 -0.693,0.003 -1.255,-1.152 -1.262,-2.59 L -40.471,2.908 C -41.275,2.61 -42.088,2.279 -42.914,1.903 l 0.149,33.953 c 0.006,1.438 1.173,2.59 2.618,2.584 L 7.192,38.233 C 8.636,38.227 9.794,37.064 9.788,35.627 L 9.639,1.673 C 6.311,0.403 3.123,-0.046 0,0" />
          </g>
        </g>
        <g
           transform="matrix(0.2613189,0,0,-0.2560357,177.16537,452.22559)"
           id="g2299">
          <g
             transform="translate(104.4644,97.7806)"
             id="g2301">
            <path
               id="path2303"
               style="fill:#d3d2d2;fill-opacity:1;fill-rule:nonzero;stroke:none"
               d="m 0,0 -3.511,-0.259 c -1.807,-0.287 -3.83,-1.514 -3.824,0 -0.045,9.148 0.244,18.317 0.002,27.453 0.049,1.754 -2.417,3.115 -3.31,1.185 -1.249,-3.279 -0.232,-6.974 -0.586,-10.404 -0.119,-6.733 0.12,-13.714 -0.222,-20.294 -1.842,-0.716 -0.339,3.487 -0.812,4.789 0.12,9.441 -0.071,18.918 0.234,28.337 1.095,2.289 4.267,0.783 6.199,1.2 14.511,-0.139 41.52,-0.292 41.52,-0.292 0,0 -30.188,-1.248 -33.582,-1.52 -2.655,-0.271 -2.163,-2.866 -2.163,-2.866 z" />
          </g>
        </g>
      </g>
    </g>
  </g>
</svg>
